 Volume in drive D is WORK
 Volume Serial Number is DCD6-B577

 Directory of D:\Dropbox\Share2Flag_Nodejs\code_formador\nodejs\event-loop

03-Jun-20  09:09 PM    <DIR>          .
03-Jun-20  09:09 PM    <DIR>          ..
03-Jun-20  09:09 PM                64 a.txt
03-Jun-20  09:08 PM                 2 blocking_code.js
03-Jun-20  09:08 PM                 2 non_blocking_code.js
               3 File(s)             68 bytes
               2 Dir(s)  545,331,527,680 bytes free
